HM1307CB," 5,619 "
HM1810," 7,509 "
HM1801," 6,999 "
HM0870C," 2,425 "
HM1203C," 3,639 "
HM1214C," 4,435 "
HR3541FC," 2,699 "
HR4001C," 2,399 "
HR4003C," 2,399 "
HR4002," 1,599 "
HR4013C," 2,499 "
HR4501C," 3,299 "
HR4511C," 3,399 "
HR5202C," 3,809 "
HR5212C," 3,909 "
HR1830, 549 
HR2230, 629 
HR2300, 629 
HR2432, 949 
HR2600, 759 
HR2610, 805 
HR2610T, 969 
HR2611F, 849 
HR2611FT," 1,029 "
HR2810," 1,165 "
HR3210C," 2,179 "
HR2450, 548 
HR2470, 689 
HR2470T, 785 
